FDP/FDP.sim/sim_1/behav/xsim/a_star_mux_movement_tb.vcd
$date
   Wed Mar 25 13:01:45 2026
$end
$version
  2018.2
$end
$timescale
  1ps
$end
$scope module a_star_mux_movement_tb $end
$var reg 1 ! clk $end
$var reg 405 " tile_map_flat [404:0] $end
$var integer 32 # init_ty $end
$var reg 1 $ map_changed $end
$var wire 1 % p1_update $end
$var wire 1 & p1_baw $end
$var wire 4 ' p1_tx [3:0] $end
$var wire 4 ( p1_ty [3:0] $end
$var wire 7 ) p1_x [6:0] $end
$var wire 6 * p1_y [5:0] $end
$var wire 1 + p1_next_is_block $end
$var wire 160 , p1_pfx [159:0] $end
$var wire 160 - p1_pfy [159:0] $end
$var wire 7 . p1_len [6:0] $end
$var wire 1 / p1_valid $end
$var reg 4 0 mouse_tx [3:0] $end
$var reg 4 1 mouse_ty [3:0] $end
$var integer 32 2 pass_count $end
$var integer 32 3 fail_count $end
$var reg 1 4 p1_valid_seen $end
$var wire 1 5 mc_path_valid_pulse $end
$var wire 1 6 mc_new_path_pending $end
$var wire 1 7 mc_tile_aligned $end
$var wire 1 8 mc_move_tick $end
$var wire 7 9 mc_path_step [6:0] $end
$var wire 4 : mc_target_tx [3:0] $end
$var wire 4 ; mc_target_ty [3:0] $end
$var wire 7 < mc_target_x [6:0] $end
$var wire 6 = mc_target_y [5:0] $end
$var wire 1 > mc_goal_changed $end
$var wire 1 ? mc_next_is_block $end
$var reg 1 @ mc_new_path_pending_prev $end
$var reg 7 A mc_path_step_prev [6:0] $end
$var reg 7 B p1_x_prev [6:0] $end
$var reg 6 C p1_y_prev [5:0] $end
$var parameter 32 D HALF [31:0] $end
$var parameter 32 E TIMEOUT_VALID [31:0] $end
$var parameter 32 F TIMEOUT_MOVE [31:0] $end
$scope module uut_mc $end
$var wire 1 G clk $end
$var wire 1 H map_changed $end
$var wire 4 I spawn_tx [3:0] $end
$var wire 4 J spawn_ty [3:0] $end
$var wire 4 K goal_tx [3:0] $end
$var wire 4 L goal_ty [3:0] $end
$var wire 405 M tile_map_flat [404:0] $end
$var wire 6 N speed [5:0] $end
$var wire 1 O is_player $end
$var wire 1 + next_is_block $end
$var wire 4 ' pos_tx_out [3:0] $end
$var wire 4 ( pos_ty_out [3:0] $end
$var reg 7 P pos_x [6:0] $end
$var reg 6 Q pos_y [5:0] $end
$var reg 1 R as_update $end
$var reg 1 S as_baw $end
$var wire 160 , path_flat_x [159:0] $end
$var wire 160 - path_flat_y [159:0] $end
$var wire 1 / path_valid $end
$var wire 7 . path_len [6:0] $end
$var reg 1 T path_valid_prev $end
$var wire 1 U path_valid_pulse $end
$var wire 32 V move_count_thresh [31:0] $end
$var reg 5 W move_counter [4:0] $end
$var wire 1 X move_tick $end
$var integer 32 Y i $end
$var reg 7 Z path_step [6:0] $end
$var wire 4 [ pos_tx [3:0] $end
$var wire 4 \ pos_ty [3:0] $end
$var wire 4 ] target_tx [3:0] $end
$var wire 4 ^ target_ty [3:0] $end
$var wire 7 _ target_x [6:0] $end
$var wire 6 ` target_y [5:0] $end
$var reg 4 a goal_tx_prev [3:0] $end
$var reg 4 b goal_ty_prev [3:0] $end
$var wire 1 c goal_changed $end
$var reg 1 d as_baw_prev $end
$var wire 1 e baw_changed $end
$var reg 1 f initialized $end
$var reg 1 g new_path_pending $end
$var reg 2 h last_dir [1:0] $end
$var wire 1 i tile_aligned $end
$var parameter 0 j SIM_CLOCK $end
$var parameter 0 k MAX_MOVE_COUNT $end
$upscope $end
$scope module uut_mux $end
$var wire 1 l clk $end
$var wire 1 m map_changed $end
$var wire 405 n tile_map_flat [404:0] $end
$var wire 1 % c0_update $end
$var wire 1 & c0_baw $end
$var wire 4 ' c0_stx [3:0] $end
$var wire 4 ( c0_sty [3:0] $end
$var wire 4 o c0_gtx [3:0] $end
$var wire 4 p c0_gty [3:0] $end
$var reg 160 q c0_pfx [159:0] $end
$var reg 160 r c0_pfy [159:0] $end
$var wire 1 / c0_valid $end
$var reg 7 s c0_len [6:0] $end
$var wire 1 t c1_update $end
$var wire 1 u c1_baw $end
$var wire 4 v c1_stx [3:0] $end
$var wire 4 w c1_sty [3:0] $end
$var wire 4 x c1_gtx [3:0] $end
$var wire 4 y c1_gty [3:0] $end
$var reg 160 z c1_pfx [159:0] $end
$var reg 160 { c1_pfy [159:0] $end
$var wire 1 | c1_valid $end
$var reg 7 } c1_len [6:0] $end
$var wire 1 ~ clk_a_star $end
$var reg 1 !! map_changed_latch $end
$var reg 1 "! c0_update_latch $end
$var reg 1 #! c1_update_latch $end
$var reg 3 $! map_hold [2:0] $end
$var reg 3 %! c0_hold_req [2:0] $end
$var reg 3 &! c1_hold_req [2:0] $end
$var reg 1 '! c0_update_ff1 $end
$var reg 1 (! c0_update_ff2 $end
$var reg 1 )! c0_update_ff2_prev $end
$var reg 1 *! c1_update_ff1 $end
$var reg 1 +! c1_update_ff2 $end
$var reg 1 ,! c1_update_ff2_prev $end
$var wire 1 -! c0_req $end
$var wire 1 .! c1_req $end
$var reg 1 /! as_update $end
$var reg 1 0! as_baw $end
$var reg 4 1! as_stx [3:0] $end
$var reg 4 2! as_sty [3:0] $end
$var reg 4 3! as_gtx [3:0] $end
$var reg 4 4! as_gty [3:0] $end
$var wire 160 5! as_pfx [159:0] $end
$var wire 160 6! as_pfy [159:0] $end
$var wire 1 7! as_valid $end
$var wire 7 8! as_len [6:0] $end
$var reg 2 9! state [1:0] $end
$var reg 1 :! c0_pending $end
$var reg 1 ;! c1_pending $end
$var reg 3 <! c0_valid_latch [2:0] $end
$var reg 3 =! c1_valid_latch [2:0] $end
$var reg 1 >! c0_valid_slow $end
$var reg 1 ?! c1_valid_slow $end
$var reg 1 @! c0_valid_ff1 $end
$var reg 1 A! c0_valid_ff2 $end
$var reg 1 B! c0_valid_ff2_prev $end
$var reg 1 C! c1_valid_ff1 $end
$var reg 1 D! c1_valid_ff2 $end
$var reg 1 E! c1_valid_ff2_prev $end
$var parameter 32 F! HOLD_CYCLES [31:0] $end
$var parameter 2 G! QUEUE [1:0] $end
$var parameter 2 H! CLIENT_ONE [1:0] $end
$var parameter 2 I! CLIENT_TWO [1:0] $end
$scope module clk_a_star_inst $end
$var wire 1 l clk $end
$var reg 1 J! clk_out $end
$var reg 32 K! count [31:0] $end
$var parameter 32 L! CLOCK_SPEED [31:0] $end
$var parameter 32 M! OUT_SPEED [31:0] $end
$var parameter 0 N! M $end
$upscope $end
$scope module a_star_inst $end
$var wire 1 ~ clk $end
$var wire 1 O! update $end
$var wire 1 P! blocks_as_walls $end
$var wire 4 Q! start_x [3:0] $end
$var wire 4 R! start_y [3:0] $end
$var wire 4 S! goal_x [3:0] $end
$var wire 4 T! goal_y [3:0] $end
$var wire 405 n tile_map_flat [404:0] $end
$var reg 160 U! path_flat_x [159:0] $end
$var reg 160 V! path_flat_y [159:0] $end
$var reg 7 W! path_len [6:0] $end
$var reg 1 X! path_valid $end
$var reg 7 Y! cost_curr [6:0] $end
$var reg 7 Z! cost_nb [6:0] $end
$var reg 7 [! cost_scan [6:0] $end
$var reg 7 \! cost_goal [6:0] $end
$var reg 4 ]! par_x_out [3:0] $end
$var reg 4 ^! par_y_out [3:0] $end
$var reg 3 _! nb_is_wall [2:0] $end
$var reg 3 `! nb_is_block [2:0] $end
$var reg 3 a! tile_base_cost [2:0] $end
$var reg 8 b! nb_heuristic [7:0] $end
$var reg 8 c! init_index_x [7:0] $end
$var reg 8 d! init_index_y [7:0] $end
$var reg 8 e! init_index_i [7:0] $end
$var reg 6 f! open_counter [5:0] $end
$var reg 6 g! closed_counter [5:0] $end
$var reg 4 h! start_x_loc [3:0] $end
$var reg 4 i! start_y_loc [3:0] $end
$var reg 4 j! goal_x_loc [3:0] $end
$var reg 4 k! goal_y_loc [3:0] $end
$var reg 8 l! best_f [7:0] $end
$var reg 6 m! scan_index [5:0] $end
$var reg 6 n! best_index [5:0] $end
$var reg 6 o! shift_index [5:0] $end
$var reg 6 p! path_index [5:0] $end
$var reg 4 q! best_x [3:0] $end
$var reg 4 r! best_y [3:0] $end
$var reg 4 s! curr_x [3:0] $end
$var reg 4 t! curr_y [3:0] $end
$var reg 4 u! nb_x [3:0] $end
$var reg 4 v! nb_y [3:0] $end
$var reg 4 w! curr_path_x [3:0] $end
$var reg 4 x! curr_path_y [3:0] $end
$var reg 2 y! nb_index [1:0] $end
$var wire 4 z! scan_open_x [3:0] $end
$var wire 4 {! scan_open_y [3:0] $end
$var reg 5 |! state [4:0] $end
$var reg 5 }! next_state [4:0] $end
$var reg 5 ~! prev_state [4:0] $end
$var parameter 0 !" EMPTY_COST $end
$var parameter 0 "" BLOCK_COST $end
$var parameter 0 #" MAX_COST $end
$var parameter 0 $" MAX_F $end
$var parameter 5 %" CHECK_OPEN [4:0] $end
$var parameter 5 &" FIND_BEST_INIT [4:0] $end
$var parameter 5 '" FIND_BEST_SCAN [4:0] $end
$var parameter 5 (" FIND_BEST_DONE [4:0] $end
$var parameter 5 )" POP_OPEN_INIT [4:0] $end
$var parameter 5 *" POP_OPEN_SHIFT [4:0] $end
$var parameter 5 +" POP_OPEN_DONE [4:0] $end
$var parameter 5 ," NB_INIT [4:0] $end
$var parameter 5 -" NB_GEN [4:0] $end
$var parameter 5 ." NB_CHECK_VALID [4:0] $end
$var parameter 5 /" NB_CHECK_GOAL [4:0] $end
$var parameter 5 0" NB_NEXT [4:0] $end
$var parameter 5 1" NB_CHECK_CLOSED_INIT [4:0] $end
$var parameter 5 2" NB_CHECK_CLOSED_SCAN [4:0] $end
$var parameter 5 3" NB_CHECK_OPEN_INIT [4:0] $end
$var parameter 5 4" NB_CHECK_OPEN_SCAN [4:0] $end
$var parameter 5 5" NB_CHECK_OPEN_DONE [4:0] $end
$var parameter 5 6" PATH_INIT [4:0] $end
$var parameter 5 7" PATH_TRACE [4:0] $end
$var parameter 5 8" DONE [4:0] $end
$var parameter 5 9" RESET_2D [4:0] $end
$var parameter 5 :" RESET_1D [4:0] $end
$var parameter 5 ;" SET_START [4:0] $end
$var parameter 5 <" FIND_BEST_BRAM_WAIT [4:0] $end
$var parameter 5 =" PATH_BRAM_WAIT [4:0] $end
$var parameter 5 >" NB_BRAM_WAIT [4:0] $end
$scope function heuristic $end
$var reg 5 ?" heuristic [4:0] $end
$var reg 4 @" x [3:0] $end
$var reg 4 A" y [3:0] $end
$var reg 4 B" goal_x [3:0] $end
$var reg 4 C" goal_y [3:0] $end
$upscope $end
$upscope $end
$upscope $end
$scope begin t3_wall $end
$var integer 32 D" s $end
$var reg 1 E" wall_hit $end
$var reg 4 F" px [3:0] $end
$var reg 4 G" py [3:0] $end
$upscope $end
$scope task tick $end
$var integer 32 H" n $end
$var integer 32 I" j $end
$upscope $end
$scope task assert_eq $end
$var reg 32 J" got [31:0] $end
$var reg 32 K" exp [31:0] $end
$var reg 256 L" label [255:0] $end
$upscope $end
$scope task wait_for_valid $end
$var integer 32 M" timeout $end
$var reg 256 N" label [255:0] $end
$var integer 32 O" k $end
$upscope $end
$scope task print_unpacked_path $end
$var integer 32 P" s $end
$var reg 4 Q" px [3:0] $end
$var reg 4 R" py [3:0] $end
$upscope $end
$scope task wait_reach_tile $end
$var reg 4 S" goal_tx_t [3:0] $end
$var reg 4 T" goal_ty_t [3:0] $end
$var integer 32 U" timeout $end
$var integer 32 V" k $end
$var reg 7 W" last_x [6:0] $end
$var reg 6 X" last_y [5:0] $end
$upscope $end
$upscope $end
$enddefinitions $end
#0
$dumpvars
0!
0!!
b1 !"
b1000000000000000000000000000000000000000000001000000000000000000000000000000000000000000001000000000000000000000000000000000000000000001000000000000000000000000000000000000000000001000000000000000000000000000000000000000000000000000000000000000000000000000000000000000001000000000000000000000000000000000000000000001000000000000000000000000000000000000000000001000000000 "
0"!
b11 ""
b1001 #
0#!
b1111000 #"
0$
b0 $!
b10001110 $"
0%
b0 %!
b0 %"
1&
b0 &!
b1 &"
bx '
0'!
b10 '"
bx (
0(!
b11 ("
bx )
0)!
b100 )"
bx *
0*!
b101 *"
x+
0+!
b110 +"
bx ,
0,!
b111 ,"
bx -
0-!
b1000 -"
bx .
0.!
b1001 ."
0/
0/!
b1010 /"
b0 0
00!
b1011 0"
b0 1
b0 1!
b1100 1"
b0 2
b0 2!
b1101 2"
b0 3
b0 3!
b1110 3"
04
b0 4!
b1111 4"
05
b0 5!
b10000 5"
06
b0 6!
b10001 6"
x7
07!
b10010 7"
08
b0 8!
b10011 8"
b0 9
b0 9!
b10100 9"
bx :
0:!
b10101 :"
bx ;
0;!
b10110 ;"
bx <
b0 <!
b10111 <"
bx =
b0 =!
b11000 ="
0>
0>!
b11001 >"
x?
0?!
bx ?"
0@
0@!
bx @"
b0 A
0A!
bx A"
b0 B
0B!
bx B"
b0 C
0C!
bx C"
b1010 D
0D!
bx D"
b10011100010000000 E
0E!
xE"
b100111000100000 F
b110 F!
bx F"
0G
b0 G!
bx G"
0H
b1 H!
b101 H"
b0 I
b10 I!
b0 I"
b0 J
0J!
bx J"
b0 K
b0 K!
bx K"
b0 L
b10111110101111000010000000 L!
bx L"
b1000000000000000000000000000000000000000000001000000000000000000000000000000000000000000001000000000000000000000000000000000000000000001000000000000000000000000000000000000000000001000000000000000000000000000000000000000000000000000000000000000000000000000000000000000001000000000000000000000000000000000000000000001000000000000000000000000000000000000000000001000000000 M
b1011111010111100001000000 M!
bx M"
b110011 N
b0 N!
bx N"
1O
0O!
bx O"
bx P
0P!
bx P"
bx Q
b0 Q!
bx Q"
0R
b0 R!
bx R"
1S
b0 S!
bx S"
0T
b0 T!
bx T"
0U
b0 U!
bx U"
b1001 V
b0 V!
bx V"
b0 W
b0 W!
bx W"
0X
0X!
bx X"
bx Y
b0 Y!
b0 Z
b0 Z!
bx [
b0 [!
bx \
b0 \!
bx ]
b0 ]!
bx ^
b0 ^!
bx _
b0 _!
bx `
b0 `!
b0 a
b0 a!
b0 b
b0 b!
0c
b0 c!
1d
b0 d!
0e
b0 e!
0f
b0 f!
0g
b0 g!
b0 h
b0 h!
xi
b0 i!
b111110100 j
b0 j!
b10100 k
b0 k!
0l
b0 l!
0m
b0 m!
b1000000000000000000000000000000000000000000001000000000000000000000000000000000000000000001000000000000000000000000000000000000000000001000000000000000000000000000000000000000000001000000000000000000000000000000000000000000000000000000000000000000000000000000000000000001000000000000000000000000000000000000000000001000000000000000000000000000000000000000000001000000000 n
b0 n!
b0 o
b0 o!
b0 p
b0 p!
bx q
b0 q!
bx r
b0 r!
bx s
b0 s!
0t
b0 t!
0u
b0 u!
b0 v
b0 v!
b0 w
b0 w!
b0 x
b0 x!
b0 y
b0 y!
bx z
bx z!
bx {
bx {!
0|
b10100 |!
bx }
b10100 }!
0~
b10100 ~!
$end
#10000
1!
b0 '
b0 (
0(!
b100 )
0)!
b110 *
0+!
0,!
17
0A!
bx B
0B!
bx C
0D!
0E!
1G
b1 I"
1J!
b100 P
b110 Q
0R
0T
b1 W
0X
b0 [
b0 \
bx ]
bx ^
b0 a
b0 b
b1 c!
1d
1f
1i
1l
b10100 |!
1~
#20000
0!
0G
0l
#30000
1!
0A!
b100 B
0B!
b110 C
0D!
0E!
1G
b10 I"
0J!
0R
0T
b10 W
0X
b0 a
b0 b
1d
1l
0~
#40000
0!
0G
0l
#50000
1!
0(!
0)!
0+!
0,!
0A!
0B!
0D!
0E!
1G
b11 I"
1J!
0R
0T
b11 W
0X
b0 a
b0 b
b10 c!
1d
1l
b10100 |!
1~
#60000
0!
0G
0l
#70000
1!
0A!
0B!
0D!
0E!
1G
b100 I"
0J!
0R
0T
b100 W
0X
b0 a
b0 b
1d
1l
0~
#80000
0!
0G
0l
#90000
1!
0(!
0)!
0+!
0,!
b100 2
0A!
0B!
0D!
0E!
1G
b101 I"
1J!
b0 J"
b0 K"
b11101000110100101101100011001010101111101111001001000000110000101110100001000000111001101110000011000010111011101101110 L"
0R
0T
b101 W
0X
b0 a
b0 b
b11 c!
1d
1l
b10100 |!
1~
#100000
0!
0G
0l
#110000
1!
b10 0
b1 1
1>
0A!
0B!
0D!
0E!
1G
0J!
b10 K
b1 L
b10011100010000000 M"
b101010001000101010100110101010000100000001100100011101000100000011100000110000101110100011010000010000001100001011100100111001001101001011101100110010101100100 N"
b0 O"
0R
0T
b110 W
0X
b0 a
b0 b
1c
1d
1l
b10 o
b1 p
0~
#120000
0!
0G
0l
#130000
1!
1%
0(!
0)!
0+!
0,!
0>
0A!
0B!
0D!
0E!
1G
1J!
b1 O"
1R
1S
0T
b111 W
0X
b10 a
b1 b
0c
b100 c!
1d
1l
b10100 |!
1~
#140000
0!
0G
0l
#150000
1!
1"!
0%
b110 %!
18
0A!
0B!
0D!
0E!
1G
0J!
b10 O"
0R
0T
b1000 W
1X
b10 a
b1 b
1d
1l
0~
#160000
0!
0G
0l
#170000
1!
b101 %!
1'!
0(!
0)!
0+!
0,!
08
0A!
0B!
0D!
0E!
1G
1J!
b11 O"
0R
0T
b0 W
0X
b10 a
b1 b
b101 c!
1d
1l
b10100 |!
1~
#180000
0!
0G
0l
#190000
1!
b100 %!
0A!
0B!
0D!
0E!
1G
0J!
b100 O"
0R
0T
b1 W
0X
b10 a
b1 b
1d
1l
0~
#200000
0!
0G
0l
#210000
1!
b11 %!
1(!
0)!
0+!
0,!
1-!
0A!
0B!
0D!
0E!
1G
1J!
b101 O"
0R
0T
b10 W
0X
b10 a
b1 b
b110 c!
1d
1l
b10100 |!
1~
#220000
0!
0G
0l
#230000
1!
b10 %!
0A!
0B!
0D!
0E!
1G
0J!
b110 O"
0R
0T
b11 W
0X
b10 a
b1 b
1d
1l
0~
#240000
0!
0G
0l
#250000
1!
b1 %!
1(!
1)!
0+!
0,!
0-!
1:!
0A!
0B!
0D!
0E!
1G
1J!
b111 O"
0R
0T
b100 W
0X
b10 a
b1 b
b111 c!
1d
1l
b10100 |!
1~
#260000
0!
0G
0l
#270000
1!
b0 %!
0A!
0B!
0D!
0E!
1G
0J!
b1000 O"
0R
0T
b101 W
0X
b10 a
b1 b
1d
1l
0~
#280000
0!
0G
0l
#290000
1!
0"!
0'!
1(!
1)!
0+!
0,!
1/!
10!
b0 1!
b0 2!
b10 3!
b1 4!
b1 9!
0:!
0A!
0B!
0D!
0E!
1G
1J!
1O!
b1001 O"
1P!
0R
b10 S!
0T
b1 T!
b110 W
0X
b10 a
b1 b
b1000 c!
1d
1l
b10100 |!
1~
#300000
0!
0G
0l
#310000
1!
0A!
0B!
0D!
0E!
1G
0J!
b1010 O"
0R
0T
b111 W
0X
b10 a
b1 b
1d
1l
0~
#320000
0!
0G
0l
#330000
1!
0(!
1)!
0+!
0,!
0/!
18
0A!
0B!
0D!
0E!
1G
1J!
0O!
b1011 O"
0R
0T
b1000 W
1X
0X!
b10 a
b1 b
b0 c!
1d
b0 d!
b0 e!
1l
b10100 |!
1~
#340000
0!
0G
0l
#350000
1!
08
0A!
0B!
0D!
0E!
1G
0J!
b1100 O"
0R
0T
b0 W
0X
b10 a
b1 b
1d
1l
0~
#360000
0!
0G
0l
#370000
1!
0(!
0)!
0+!
0,!
0A!
0B!
0D!
0E!
1G
1J!
b1101 O"
0R
0T
b1 W
0X
b10 a
b1 b
b1 c!
1d
1l
b10100 |!
1~
#380000
0!
0G
0l
#390000
1!
0A!
0B!
0D!
0E!
1G
0J!
b1110 O"
0R
0T
b10 W
0X
b10 a
b1 b
1d
1l
0~
#400000
0!
0G
0l
#410000
1!
0(!
0)!
0+!
0,!
0A!
0B!
0D!
0E!
1G
1J!
b1111 O"
0R
0T
b11 W
0X
b10 a
b1 b
b10 c!
1d
1l
b10100 |!
1~
#420000
0!
0G
0l
#430000
1!
0A!
0B!
0D!
0E!
1G
0J!
b10000 O"
0R
0T
b100 W
0X
b10 a
b1 b
1d
1l
0~
#440000
0!
0G
0l
#450000
1!
0(!
0)!
0+!
0,!
0A!
0B!
0D!
0E!
1G
1J!
b10001 O"
0R
0T
b101 W
0X
b10 a
b1 b
b11 c!
1d
1l
b10100 |!
1~
#460000
0!
0G
0l
#470000
1!
0A!
0B!
0D!
0E!
1G
0J!
b10010 O"
0R
0T
b110 W
0X
b10 a
b1 b
1d
1l
0~
#480000
0!
0G
0l
#490000
1!
0(!
0)!
0+!
0,!
0A!
0B!
0D!
0E!
1G
1J!
b10011 O"
0R
0T
b111 W
0X
b10 a
b1 b
b100 c!
1d
1l
b10100 |!
1~
#500000
0!
0G
0l
#510000
1!
18
0A!
0B!
0D!
0E!
1G
0J!
b10100 O"
0R
0T
b1000 W
1X
b10 a
b1 b
1d
1l
0~
#520000
0!
0G
0l
#530000
1!
0(!
0)!
0+!
0,!
08
0A!
0B!
0D!
0E!
1G
1J!
b10101 O"
0R
0T
b0 W
0X
b10 a
b1 b
b101 c!
1d
1l
b10100 |!
1~
#540000
0!
0G
0l
#550000
1!
0A!
0B!
0D!
0E!
1G
0J!
b10110 O"
0R
0T
b1 W
0X
b10 a
b1 b
1d
1l
0~
#560000
0!
0G
0l
#570000
1!
0(!
0)!
0+!
0,!
0A!
0B!
0D!
0E!
1G
1J!
b10111 O"
0R
0T
b10 W
0X
b10 a
b1 b
b110 c!
1d
1l
b10100 |!
1~
#580000
0!
0G
0l
#590000
1!
0A!
0B!
0D!
0E!
1G
0J!
b11000 O"
0R
0T
b11 W
0X
b10 a
b1 b
1d
1l
0~
#600000
0!
0G
0l
#610000
1!
0(!
0)!
0+!
0,!
0A!
0B!
0D!
0E!
1G
1J!
b11001 O"
0R
0T
b100 W
0X
b10 a
b1 b
b111 c!
1d
1l
b10100 |!
1~
#620000
0!
0G
0l
#630000
1!
0A!
0B!
0D!
0E!
1G
0J!
b11010 O"
0R
0T
b101 W
0X
b10 a
b1 b
1d
1l
0~
#640000
0!
0G
0l
#650000
1!
0(!
0)!
0+!
0,!
0A!
0B!
0D!
0E!
1G
1J!
b11011 O"
0R
0T
b110 W
0X
b10 a
b1 b
b1000 c!
1d
1l
b10100 |!
1~
#660000
0!
0G
0l
#670000
1!
0A!
0B!
0D!
0E!
1G
0J!
b11100 O"
0R
0T
b111 W
0X
b10 a
b1 b
1d
1l
0~
#680000
0!
0G
0l
#690000
1!
0(!
0)!
0+!
0,!
18
0A!
0B!
0D!
0E!
1G
1J!
b11101 O"
0R
0T
b1000 W
1X
b10 a
b1 b
b1001 c!
1d
1l
b10100 |!
1~
#700000
0!
0G
0l
#710000
1!
08
0A!
0B!
0D!
0E!
1G
0J!
b11110 O"
0R
0T
b0 W
0X
b10 a
b1 b
1d
1l
0~
#720000
0!
0G
0l
#730000
1!
0(!
0)!
0+!
0,!
0A!
0B!
0D!
0E!
1G
1J!
b11111 O"
0R
0T
b1 W
0X
b10 a
b1 b
b1010 c!
1d
1l
b10100 |!
1~
#740000
0!
0G
0l
#750000
1!
0A!
0B!
0D!
0E!
1G
0J!
b100000 O"
0R
0T
b10 W
0X
b10 a
b1 b
1d
1l
0~
#760000
0!
0G
0l
#770000
1!
0(!
0)!
0+!
0,!
0A!
0B!
0D!
0E!
1G
1J!
b100001 O"
0R
0T
b11 W
0X
b10 a
b1 b
b1011 c!
1d
1l
b10100 |!
1~
#780000
0!
0G
0l
#790000
1!
0A!
0B!
0D!
0E!
1G
0J!
b100010 O"
0R
0T
b100 W
0X
b10 a
b1 b
1d
1l
0~
#800000
0!
0G
0l
#810000
1!
0(!
0)!
0+!
0,!
0A!
0B!
0D!
0E!
1G
1J!
b100011 O"
0R
0T
b101 W
0X
b10 a
b1 b
b1100 c!
1d
1l
b10100 |!
1~
#820000
0!
0G
0l
#830000
1!
0A!
0B!
0D!
0E!
1G
0J!
b100100 O"
0R
0T
b110 W
0X
b10 a
b1 b
1d
1l
0~
#840000
0!
0G
0l
#850000
1!
0(!
0)!
0+!
0,!
0A!
0B!
0D!
0E!
1G
1J!
b100101 O"
0R
0T
b111 W
0X
b10 a
b1 b
b1101 c!
1d
1l
b10100 |!
1~
#860000
0!
0G
0l
#870000
1!
18
0A!
0B!
0D!
0E!
1G
0J!
b100110 O"
0R
0T
b1000 W
1X
b10 a
b1 b
1d
1l
0~
#880000
0!
0G
0l
#890000
1!
0(!
0)!
0+!
0,!
08
0A!
0B!
0D!
0E!
1G
1J!
b100111 O"
0R
0T
b0 W
0X
b10 a
b1 b
b1110 c!
1d
1l
b10100 |!
1~
#900000
0!
0G
0l
#910000
1!
0A!
0B!
0D!
0E!
1G
0J!
b101000 O"
0R
0T
b1 W
0X
b10 a
b1 b
1d
1l
0~
#920000
0!
0G
0l
#930000
1!
0(!
0)!
0+!
0,!
0A!
0B!
0D!
0E!
1G
1J!
b101001 O"
0R
0T
b10 W
0X
b10 a
b1 b
b0 c!
1d
b1 d!
1l
b10100 |!
1~
#940000
0!
0G
0l
#950000
1!
0A!
0B!
0D!
0E!
1G
0J!
b101010 O"
0R
0T
b11 W
0X
b10 a
b1 b
1d
1l
0~
#960000
0!
0G
0l
#970000
1!
0(!
0)!
0+!
0,!
0A!
0B!
0D!
0E!
1G
1J!
b101011 O"
0R
0T
b100 W
0X
b10 a
b1 b
b1 c!
1d
1l
b10100 |!
1~
#980000
0!
0G
0l
#990000
1!
0A!
0B!
0D!
0E!
1G
0J!
b101100 O"
0R
0T
b101 W
0X
b10 a
b1 b
1d
1l
0~
#1000000
0!
0G
0l
#1010000
1!
0(!
0)!
0+!
0,!
0A!
0B!
0D!
0E!
1G
1J!
b101101 O"
0R
0T
b110 W
0X
b10 a
b1 b
b10 c!
1d
1l
b10100 |!
1~
#1020000
0!
0G
0l
#1030000
1!
0A!
0B!
0D!
0E!
1G
0J!
b101110 O"
0R
0T
b111 W
0X
b10 a
b1 b
1d
1l
0~
#1040000
0!
0G
0l
#1050000
1!
0(!
0)!
0+!
0,!
18
0A!
0B!
0D!
0E!
1G
1J!
b101111 O"
0R
0T
b1000 W
1X
b10 a
b1 b
b11 c!
1d
1l
b10100 |!
1~
#1060000
0!
0G
0l
#1070000
1!
08
0A!
0B!
0D!
0E!
1G
0J!
b110000 O"
0R
0T
b0 W
0X
b10 a
b1 b
1d
1l
0~
#1080000
0!
0G
0l
#1090000
1!
0(!
0)!
0+!
0,!
0A!
0B!
0D!
0E!
1G
1J!
b110001 O"
0R
0T
b1 W
0X
b10 a
b1 b
b100 c!
1d
1l
b10100 |!
1~
#1100000
0!
0G
0l
#1110000
1!
0A!
0B!
0D!
0E!
1G
0J!
b110010 O"
0R
0T
b10 W
0X
b10 a
b1 b
1d
1l
0~
#1120000
0!
0G
0l
#1130000
1!
0(!
0)!
0+!
0,!
0A!
0B!
0D!
0E!
1G
1J!
b110011 O"
0R
0T
b11 W
0X
b10 a
b1 b
b101 c!
1d
1l
b10100 |!
1~
#1140000
0!
0G
0l
#1150000
1!
0A!
0B!
0D!
0E!
1G
0J!
b110100 O"
0R
0T
b100 W
0X
b10 a
b1 b
1d
1l
0~
#1160000
0!
0G
0l
#1170000
1!
0(!
0)!
0+!
0,!
0A!
0B!
0D!
0E!
1G
1J!
b110101 O"
0R
0T
b101 W
0X
b10 a
b1 b
b110 c!
1d
1l
b10100 |!
1~
#1180000
0!
0G
0l
#1190000
1!
0A!
0B!
0D!
0E!
1G
0J!
b110110 O"
0R
0T
b110 W
0X
b10 a
b1 b
1d
1l
0~
#1200000
0!
0G
0l
#1210000
1!
0(!
0)!
0+!
0,!
0A!
0B!
0D!
0E!
1G
1J!
b110111 O"
0R
0T
b111 W
0X
b10 a
b1 b
b111 c!
1d
1l
b10100 |!
1~
#1220000
0!
0G
0l
#1230000
1!
18
0A!
0B!
0D!
0E!
1G
0J!
b111000 O"
0R
0T
b1000 W
1X
b10 a
b1 b
1d
1l
0~
#1240000
0!
0G
0l
#1250000
1!
0(!
0)!
0+!
0,!
08
0A!
0B!
0D!
0E!
1G
1J!
b111001 O"
0R
0T
b0 W
0X
b10 a
b1 b
b1000 c!
1d
1l
b10100 |!
1~
#1260000
0!
0G
0l
#1270000
1!
0A!
0B!
0D!
0E!
1G
0J!
b111010 O"
0R
0T
b1 W
0X
b10 a
b1 b
1d
1l
0~
#1280000
0!
0G
0l
#1290000
1!
0(!
0)!
0+!
0,!
0A!
0B!
0D!
0E!
1G
1J!
b111011 O"
0R
0T
b10 W
0X
b10 a
b1 b
b1001 c!
1d
1l
b10100 |!
1~
#1300000
0!
0G
0l
#1310000
1!
0A!
0B!
0D!
0E!
1G
0J!
b111100 O"
0R
0T
b11 W
0X
b10 a
b1 b
1d
1l
0~
#1320000
0!
0G
0l
#1330000
1!
0(!
0)!
0+!
0,!
0A!
0B!
0D!
0E!
1G
1J!
b111101 O"
0R
0T
b100 W
0X
b10 a
b1 b
b1010 c!
1d
1l
b10100 |!
1~
#1340000
0!
0G
0l
#1350000
1!
0A!
0B!
0D!
0E!
1G
0J!
b111110 O"
0R
0T
b101 W
0X
b10 a
b1 b
1d
1l
0~
#1360000
0!
0G
0l
#1370000
1!
0(!
0)!
0+!
0,!
0A!
0B!
0D!
0E!
1G
1J!
b111111 O"
0R
0T
b110 W
0X
b10 a
b1 b
b1011 c!
1d
1l
b10100 |!
1~
#1380000
0!
0G
0l
#1390000
1!
0A!
0B!
0D!
0E!
1G
0J!
b1000000 O"
0R
0T
b111 W
0X
b10 a
b1 b
1d
1l
0~
#1400000
0!
0G
0l
#1410000
1!
0(!
0)!
0+!
0,!
18
0A!
0B!
0D!
0E!
1G
1J!
b1000001 O"
0R
0T
b1000 W
1X
b10 a
b1 b
b1100 c!
1d
1l
b10100 |!
1~
#1420000
0!
0G
0l
#1430000
1!
08
0A!
0B!
0D!
0E!
1G
0J!
b1000010 O"
0R
0T
b0 W
0X
b10 a
b1 b
1d
1l
0~
#1440000
0!
0G
0l
