FDP/FDP.sim/sim_1/behav/xsim/simulate.log
Vivado Simulator 2018.2
Time resolution is 1 ps
=== Starting testbench ===
t=0 state=10100 path_valid=0 saved=1 path_idx=  0 path_len=0000000 flat_x=000000 flat_y=000000, path_lenl=0000000 flat_xl=xxxxxx flat_yl=xxxxxx, path_x=xxxxxxxxxxxxxxxx, path_y=xxxxxxxxxxxxxxxx
t=2685000 state=10101 path_valid=0 saved=1 path_idx=  0 path_len=0000000 flat_x=000000 flat_y=000000, path_lenl=0000000 flat_xl=xxxxxx flat_yl=xxxxxx, path_x=xxxxxxxxxxxxxxxx, path_y=xxxxxxxxxxxxxxxx
t=2705000 state=10101 path_valid=0 saved=1 path_idx=  0 path_len=0000000 flat_x=000001 flat_y=000001, path_lenl=0000000 flat_xl=xxxxxx flat_yl=xxxxxx, path_x=xxxxxxxxxxxxxxxx, path_y=xxxxxxxxxxxxxxxx
t=2725000 state=10101 path_valid=0 saved=1 path_idx=  0 path_len=0000000 flat_x=000003 flat_y=000003, path_lenl=0000000 flat_xl=xxxxxx flat_yl=xxxxxx, path_x=xxxxxxxxxxxxxxxx, path_y=xxxxxxxxxxxxxxxx
t=2745000 state=10101 path_valid=0 saved=1 path_idx=  0 path_len=0000000 flat_x=000007 flat_y=000007, path_lenl=0000000 flat_xl=xxxxxx flat_yl=xxxxxx, path_x=xxxxxxxxxxxxxxxx, path_y=xxxxxxxxxxxxxxxx
t=2765000 state=10101 path_valid=0 saved=1 path_idx=  0 path_len=0000000 flat_x=00000f flat_y=00000f, path_lenl=0000000 flat_xl=xxxxxx flat_yl=xxxxxx, path_x=xxxxxxxxxxxxxxxx, path_y=xxxxxxxxxxxxxxxx
t=2785000 state=10101 path_valid=0 saved=1 path_idx=  0 path_len=0000000 flat_x=00001f flat_y=00001f, path_lenl=0000000 flat_xl=xxxxxx flat_yl=xxxxxx, path_x=xxxxxxxxxxxxxxxx, path_y=xxxxxxxxxxxxxxxx
t=2805000 state=10101 path_valid=0 saved=1 path_idx=  0 path_len=0000000 flat_x=00003f flat_y=00003f, path_lenl=0000000 flat_xl=xxxxxx flat_yl=xxxxxx, path_x=xxxxxxxxxxxxxxxx, path_y=xxxxxxxxxxxxxxxx
t=2825000 state=10101 path_valid=0 saved=1 path_idx=  0 path_len=0000000 flat_x=00007f flat_y=00007f, path_lenl=0000000 flat_xl=xxxxxx flat_yl=xxxxxx, path_x=xxxxxxxxxxxxxxxx, path_y=xxxxxxxxxxxxxxxx
t=2845000 state=10101 path_valid=0 saved=1 path_idx=  0 path_len=0000000 flat_x=0000ff flat_y=0000ff, path_lenl=0000000 flat_xl=xxxxxx flat_yl=xxxxxx, path_x=xxxxxxxxxxxxxxxx, path_y=xxxxxxxxxxxxxxxx
t=2865000 state=10101 path_valid=0 saved=1 path_idx=  0 path_len=0000000 flat_x=0001ff flat_y=0001ff, path_lenl=0000000 flat_xl=xxxxxx flat_yl=xxxxxx, path_x=xxxxxxxxxxxxxxxx, path_y=xxxxxxxxxxxxxxxx
t=2885000 state=10101 path_valid=0 saved=1 path_idx=  0 path_len=0000000 flat_x=0003ff flat_y=0003ff, path_lenl=0000000 flat_xl=xxxxxx flat_yl=xxxxxx, path_x=xxxxxxxxxxxxxxxx, path_y=xxxxxxxxxxxxxxxx
t=2905000 state=10101 path_valid=0 saved=1 path_idx=  0 path_len=0000000 flat_x=0007ff flat_y=0007ff, path_lenl=0000000 flat_xl=xxxxxx flat_yl=xxxxxx, path_x=xxxxxxxxxxxxxxxx, path_y=xxxxxxxxxxxxxxxx
t=2925000 state=10101 path_valid=0 saved=1 path_idx=  0 path_len=0000000 flat_x=000fff flat_y=000fff, path_lenl=0000000 flat_xl=xxxxxx flat_yl=xxxxxx, path_x=xxxxxxxxxxxxxxxx, path_y=xxxxxxxxxxxxxxxx
t=2945000 state=10101 path_valid=0 saved=1 path_idx=  0 path_len=0000000 flat_x=001fff flat_y=001fff, path_lenl=0000000 flat_xl=xxxxxx flat_yl=xxxxxx, path_x=xxxxxxxxxxxxxxxx, path_y=xxxxxxxxxxxxxxxx
t=2965000 state=10101 path_valid=0 saved=1 path_idx=  0 path_len=0000000 flat_x=003fff flat_y=003fff, path_lenl=0000000 flat_xl=xxxxxx flat_yl=xxxxxx, path_x=xxxxxxxxxxxxxxxx, path_y=xxxxxxxxxxxxxxxx
t=2985000 state=10101 path_valid=0 saved=1 path_idx=  0 path_len=0000000 flat_x=007fff flat_y=007fff, path_lenl=0000000 flat_xl=xxxxxx flat_yl=xxxxxx, path_x=xxxxxxxxxxxxxxxx, path_y=xxxxxxxxxxxxxxxx
t=3005000 state=10101 path_valid=0 saved=1 path_idx=  0 path_len=0000000 flat_x=00ffff flat_y=00ffff, path_lenl=0000000 flat_xl=xxxxxx flat_yl=xxxxxx, path_x=xxxxxxxxxxxxxxxx, path_y=xxxxxxxxxxxxxxxx
t=3025000 state=10101 path_valid=0 saved=1 path_idx=  0 path_len=0000000 flat_x=01ffff flat_y=01ffff, path_lenl=0000000 flat_xl=xxxxxx flat_yl=xxxxxx, path_x=xxxxxxxxxxxxxxxx, path_y=xxxxxxxxxxxxxxxx
t=3045000 state=10101 path_valid=0 saved=1 path_idx=  0 path_len=0000000 flat_x=03ffff flat_y=03ffff, path_lenl=0000000 flat_xl=xxxxxx flat_yl=xxxxxx, path_x=xxxxxxxxxxxxxxxx, path_y=xxxxxxxxxxxxxxxx
t=3065000 state=10101 path_valid=0 saved=1 path_idx=  0 path_len=0000000 flat_x=07ffff flat_y=07ffff, path_lenl=0000000 flat_xl=xxxxxx flat_yl=xxxxxx, path_x=xxxxxxxxxxxxxxxx, path_y=xxxxxxxxxxxxxxxx
t=3085000 state=10101 path_valid=0 saved=1 path_idx=  0 path_len=0000000 flat_x=0fffff flat_y=0fffff, path_lenl=0000000 flat_xl=xxxxxx flat_yl=xxxxxx, path_x=xxxxxxxxxxxxxxxx, path_y=xxxxxxxxxxxxxxxx
t=3105000 state=10101 path_valid=0 saved=1 path_idx=  0 path_len=0000000 flat_x=1fffff flat_y=1fffff, path_lenl=0000000 flat_xl=xxxxxx flat_yl=xxxxxx, path_x=xxxxxxxxxxxxxxxx, path_y=xxxxxxxxxxxxxxxx
t=3125000 state=10101 path_valid=0 saved=1 path_idx=  0 path_len=0000000 flat_x=3fffff flat_y=3fffff, path_lenl=0000000 flat_xl=xxxxxx flat_yl=xxxxxx, path_x=xxxxxxxxxxxxxxxx, path_y=xxxxxxxxxxxxxxxx
t=3145000 state=10101 path_valid=0 saved=1 path_idx=  0 path_len=0000000 flat_x=7fffff flat_y=7fffff, path_lenl=0000000 flat_xl=xxxxxx flat_yl=xxxxxx, path_x=xxxxxxxxxxxxxxxx, path_y=xxxxxxxxxxxxxxxx
t=3165000 state=10101 path_valid=0 saved=1 path_idx=  0 path_len=0000000 flat_x=ffffff flat_y=ffffff, path_lenl=0000000 flat_xl=xxxxxx flat_yl=xxxxxx, path_x=xxxxxxxxxxxxxxxx, path_y=xxxxxxxxxxxxxxxx
t=9165000 state=10110 path_valid=0 saved=1 path_idx=  0 path_len=0000000 flat_x=ffffff flat_y=ffffff, path_lenl=0000000 flat_xl=xxxxxx flat_yl=xxxxxx, path_x=xxxxxxxxxxxxxxxx, path_y=xxxxxxxxxxxxxxxx
t=9185000 state=00000 path_valid=0 saved=1 path_idx=  0 path_len=0000000 flat_x=ffffff flat_y=ffffff, path_lenl=0000000 flat_xl=xxxxxx flat_yl=xxxxxx, path_x=xxxxxxxxxxxxxxxx, path_y=xxxxxxxxxxxxxxxx
t=9205000 state=00001 path_valid=0 saved=1 path_idx=  0 path_len=0000000 flat_x=ffffff flat_y=ffffff, path_lenl=0000000 flat_xl=xxxxxx flat_yl=xxxxxx, path_x=xxxxxxxxxxxxxxxx, path_y=xxxxxxxxxxxxxxxx
t=9225000 state=00010 path_valid=0 saved=1 path_idx=  0 path_len=0000000 flat_x=ffffff flat_y=ffffff, path_lenl=0000000 flat_xl=xxxxxx flat_yl=xxxxxx, path_x=xxxxxxxxxxxxxxxx, path_y=xxxxxxxxxxxxxxxx
t=9265000 state=00011 path_valid=0 saved=1 path_idx=  0 path_len=0000000 flat_x=ffffff flat_y=ffffff, path_lenl=0000000 flat_xl=xxxxxx flat_yl=xxxxxx, path_x=xxxxxxxxxxxxxxxx, path_y=xxxxxxxxxxxxxxxx
t=9285000 state=00100 path_valid=0 saved=1 path_idx=  0 path_len=0000000 flat_x=ffffff flat_y=ffffff, path_lenl=0000000 flat_xl=xxxxxx flat_yl=xxxxxx, path_x=xxxxxxxxxxxxxxxx, path_y=xxxxxxxxxxxxxxxx
t=9305000 state=00101 path_valid=0 saved=1 path_idx=  0 path_len=0000000 flat_x=ffffff flat_y=ffffff, path_lenl=0000000 flat_xl=xxxxxx flat_yl=xxxxxx, path_x=xxxxxxxxxxxxxxxx, path_y=xxxxxxxxxxxxxxxx
t=9325000 state=00110 path_valid=0 saved=1 path_idx=  0 path_len=0000000 flat_x=ffffff flat_y=ffffff, path_lenl=0000000 flat_xl=xxxxxx flat_yl=xxxxxx, path_x=xxxxxxxxxxxxxxxx, path_y=xxxxxxxxxxxxxxxx
t=9345000 state=00111 path_valid=0 saved=1 path_idx=  0 path_len=0000000 flat_x=ffffff flat_y=ffffff, path_lenl=0000000 flat_xl=xxxxxx flat_yl=xxxxxx, path_x=xxxxxxxxxxxxxxxx, path_y=xxxxxxxxxxxxxxxx
t=9365000 state=01000 path_valid=0 saved=1 path_idx=  0 path_len=0000000 flat_x=ffffff flat_y=ffffff, path_lenl=0000000 flat_xl=xxxxxx flat_yl=xxxxxx, path_x=xxxxxxxxxxxxxxxx, path_y=xxxxxxxxxxxxxxxx
t=9385000 state=01001 path_valid=0 saved=1 path_idx=  0 path_len=0000000 flat_x=ffffff flat_y=ffffff, path_lenl=0000000 flat_xl=xxxxxx flat_yl=xxxxxx, path_x=xxxxxxxxxxxxxxxx, path_y=xxxxxxxxxxxxxxxx
t=9405000 state=01011 path_valid=0 saved=1 path_idx=  0 path_len=0000000 flat_x=ffffff flat_y=ffffff, path_lenl=0000000 flat_xl=xxxxxx flat_yl=xxxxxx, path_x=xxxxxxxxxxxxxxxx, path_y=xxxxxxxxxxxxxxxx
t=9425000 state=01000 path_valid=0 saved=1 path_idx=  0 path_len=0000000 flat_x=ffffff flat_y=ffffff, path_lenl=0000000 flat_xl=xxxxxx flat_yl=xxxxxx, path_x=xxxxxxxxxxxxxxxx, path_y=xxxxxxxxxxxxxxxx
t=9445000 state=01001 path_valid=0 saved=1 path_idx=  0 path_len=0000000 flat_x=ffffff flat_y=ffffff, path_lenl=0000000 flat_xl=xxxxxx flat_yl=xxxxxx, path_x=xxxxxxxxxxxxxxxx, path_y=xxxxxxxxxxxxxxxx
t=9465000 state=01010 path_valid=0 saved=1 path_idx=  0 path_len=0000000 flat_x=ffffff flat_y=ffffff, path_lenl=0000000 flat_xl=xxxxxx flat_yl=xxxxxx, path_x=xxxxxxxxxxxxxxxx, path_y=xxxxxxxxxxxxxxxx
t=9485000 state=01100 path_valid=0 saved=1 path_idx=  0 path_len=0000000 flat_x=ffffff flat_y=ffffff, path_lenl=0000000 flat_xl=xxxxxx flat_yl=xxxxxx, path_x=xxxxxxxxxxxxxxxx, path_y=xxxxxxxxxxxxxxxx
t=9505000 state=01101 path_valid=0 saved=1 path_idx=  0 path_len=0000000 flat_x=ffffff flat_y=ffffff, path_lenl=0000000 flat_xl=xxxxxx flat_yl=xxxxxx, path_x=xxxxxxxxxxxxxxxx, path_y=xxxxxxxxxxxxxxxx
t=9545000 state=01110 path_valid=0 saved=1 path_idx=  0 path_len=0000000 flat_x=ffffff flat_y=ffffff, path_lenl=0000000 flat_xl=xxxxxx flat_yl=xxxxxx, path_x=xxxxxxxxxxxxxxxx, path_y=xxxxxxxxxxxxxxxx
t=9565000 state=01111 path_valid=0 saved=1 path_idx=  0 path_len=0000000 flat_x=ffffff flat_y=ffffff, path_lenl=0000000 flat_xl=xxxxxx flat_yl=xxxxxx, path_x=xxxxxxxxxxxxxxxx, path_y=xxxxxxxxxxxxxxxx
t=9585000 state=10000 path_valid=0 saved=1 path_idx=  0 path_len=0000000 flat_x=ffffff flat_y=ffffff, path_lenl=0000000 flat_xl=xxxxxx flat_yl=xxxxxx, path_x=xxxxxxxxxxxxxxxx, path_y=xxxxxxxxxxxxxxxx
t=9605000 state=01011 path_valid=0 saved=1 path_idx=  0 path_len=0000000 flat_x=ffffff flat_y=ffffff, path_lenl=0000000 flat_xl=xxxxxx flat_yl=xxxxxx, path_x=xxxxxxxxxxxxxxxx, path_y=xxxxxxxxxxxxxxxx
t=9625000 state=01000 path_valid=0 saved=1 path_idx=  0 path_len=0000000 flat_x=ffffff flat_y=ffffff, path_lenl=0000000 flat_xl=xxxxxx flat_yl=xxxxxx, path_x=xxxxxxxxxxxxxxxx, path_y=xxxxxxxxxxxxxxxx
t=9645000 state=01001 path_valid=0 saved=1 path_idx=  0 path_len=0000000 flat_x=ffffff flat_y=ffffff, path_lenl=0000000 flat_xl=xxxxxx flat_yl=xxxxxx, path_x=xxxxxxxxxxxxxxxx, path_y=xxxxxxxxxxxxxxxx
t=9665000 state=01011 path_valid=0 saved=1 path_idx=  0 path_len=0000000 flat_x=ffffff flat_y=ffffff, path_lenl=0000000 flat_xl=xxxxxx flat_yl=xxxxxx, path_x=xxxxxxxxxxxxxxxx, path_y=xxxxxxxxxxxxxxxx
t=9685000 state=01000 path_valid=0 saved=1 path_idx=  0 path_len=0000000 flat_x=ffffff flat_y=ffffff, path_lenl=0000000 flat_xl=xxxxxx flat_yl=xxxxxx, path_x=xxxxxxxxxxxxxxxx, path_y=xxxxxxxxxxxxxxxx
t=9705000 state=01001 path_valid=0 saved=1 path_idx=  0 path_len=0000000 flat_x=ffffff flat_y=ffffff, path_lenl=0000000 flat_xl=xxxxxx flat_yl=xxxxxx, path_x=xxxxxxxxxxxxxxxx, path_y=xxxxxxxxxxxxxxxx
t=9725000 state=01010 path_valid=0 saved=1 path_idx=  0 path_len=0000000 flat_x=ffffff flat_y=ffffff, path_lenl=0000000 flat_xl=xxxxxx flat_yl=xxxxxx, path_x=xxxxxxxxxxxxxxxx, path_y=xxxxxxxxxxxxxxxx
t=9745000 state=01100 path_valid=0 saved=1 path_idx=  0 path_len=0000000 flat_x=ffffff flat_y=ffffff, path_lenl=0000000 flat_xl=xxxxxx flat_yl=xxxxxx, path_x=xxxxxxxxxxxxxxxx, path_y=xxxxxxxxxxxxxxxx
t=9765000 state=01101 path_valid=0 saved=1 path_idx=  0 path_len=0000000 flat_x=ffffff flat_y=ffffff, path_lenl=0000000 flat_xl=xxxxxx flat_yl=xxxxxx, path_x=xxxxxxxxxxxxxxxx, path_y=xxxxxxxxxxxxxxxx
t=9805000 state=01110 path_valid=0 saved=1 path_idx=  0 path_len=0000000 flat_x=ffffff flat_y=ffffff, path_lenl=0000000 flat_xl=xxxxxx flat_yl=xxxxxx, path_x=xxxxxxxxxxxxxxxx, path_y=xxxxxxxxxxxxxxxx
t=9825000 state=01111 path_valid=0 saved=1 path_idx=  0 path_len=0000000 flat_x=ffffff flat_y=ffffff, path_lenl=0000000 flat_xl=xxxxxx flat_yl=xxxxxx, path_x=xxxxxxxxxxxxxxxx, path_y=xxxxxxxxxxxxxxxx
t=9865000 state=10000 path_valid=0 saved=1 path_idx=  0 path_len=0000000 flat_x=ffffff flat_y=ffffff, path_lenl=0000000 flat_xl=xxxxxx flat_yl=xxxxxx, path_x=xxxxxxxxxxxxxxxx, path_y=xxxxxxxxxxxxxxxx
t=9885000 state=01011 path_valid=0 saved=1 path_idx=  0 path_len=0000000 flat_x=ffffff flat_y=ffffff, path_lenl=0000000 flat_xl=xxxxxx flat_yl=xxxxxx, path_x=xxxxxxxxxxxxxxxx, path_y=xxxxxxxxxxxxxxxx
t=9905000 state=00000 path_valid=0 saved=1 path_idx=  0 path_len=0000000 flat_x=ffffff flat_y=ffffff, path_lenl=0000000 flat_xl=xxxxxx flat_yl=xxxxxx, path_x=xxxxxxxxxxxxxxxx, path_y=xxxxxxxxxxxxxxxx
t=9925000 state=00001 path_valid=0 saved=1 path_idx=  0 path_len=0000000 flat_x=ffffff flat_y=ffffff, path_lenl=0000000 flat_xl=xxxxxx flat_yl=xxxxxx, path_x=xxxxxxxxxxxxxxxx, path_y=xxxxxxxxxxxxxxxx
t=9945000 state=00010 path_valid=0 saved=1 path_idx=  0 path_len=0000000 flat_x=ffffff flat_y=ffffff, path_lenl=0000000 flat_xl=xxxxxx flat_yl=xxxxxx, path_x=xxxxxxxxxxxxxxxx, path_y=xxxxxxxxxxxxxxxx
t=10005000 state=00011 path_valid=0 saved=1 path_idx=  0 path_len=0000000 flat_x=ffffff flat_y=ffffff, path_lenl=0000000 flat_xl=xxxxxx flat_yl=xxxxxx, path_x=xxxxxxxxxxxxxxxx, path_y=xxxxxxxxxxxxxxxx
t=10025000 state=00100 path_valid=0 saved=1 path_idx=  0 path_len=0000000 flat_x=ffffff flat_y=ffffff, path_lenl=0000000 flat_xl=xxxxxx flat_yl=xxxxxx, path_x=xxxxxxxxxxxxxxxx, path_y=xxxxxxxxxxxxxxxx
t=10045000 state=00101 path_valid=0 saved=1 path_idx=  0 path_len=0000000 flat_x=ffffff flat_y=ffffff, path_lenl=0000000 flat_xl=xxxxxx flat_yl=xxxxxx, path_x=xxxxxxxxxxxxxxxx, path_y=xxxxxxxxxxxxxxxx
t=10085000 state=00110 path_valid=0 saved=1 path_idx=  0 path_len=0000000 flat_x=ffffff flat_y=ffffff, path_lenl=0000000 flat_xl=xxxxxx flat_yl=xxxxxx, path_x=xxxxxxxxxxxxxxxx, path_y=xxxxxxxxxxxxxxxx
t=10105000 state=00111 path_valid=0 saved=1 path_idx=  0 path_len=0000000 flat_x=ffffff flat_y=ffffff, path_lenl=0000000 flat_xl=xxxxxx flat_yl=xxxxxx, path_x=xxxxxxxxxxxxxxxx, path_y=xxxxxxxxxxxxxxxx
t=10125000 state=01000 path_valid=0 saved=1 path_idx=  0 path_len=0000000 flat_x=ffffff flat_y=ffffff, path_lenl=0000000 flat_xl=xxxxxx flat_yl=xxxxxx, path_x=xxxxxxxxxxxxxxxx, path_y=xxxxxxxxxxxxxxxx
t=10145000 state=01001 path_valid=0 saved=1 path_idx=  0 path_len=0000000 flat_x=ffffff flat_y=ffffff, path_lenl=0000000 flat_xl=xxxxxx flat_yl=xxxxxx, path_x=xxxxxxxxxxxxxxxx, path_y=xxxxxxxxxxxxxxxx
t=10165000 state=01010 path_valid=0 saved=1 path_idx=  0 path_len=0000000 flat_x=ffffff flat_y=ffffff, path_lenl=0000000 flat_xl=xxxxxx flat_yl=xxxxxx, path_x=xxxxxxxxxxxxxxxx, path_y=xxxxxxxxxxxxxxxx
t=10185000 state=01100 path_valid=0 saved=1 path_idx=  0 path_len=0000000 flat_x=ffffff flat_y=ffffff, path_lenl=0000000 flat_xl=xxxxxx flat_yl=xxxxxx, path_x=xxxxxxxxxxxxxxxx, path_y=xxxxxxxxxxxxxxxx
t=10205000 state=01101 path_valid=0 saved=1 path_idx=  0 path_len=0000000 flat_x=ffffff flat_y=ffffff, path_lenl=0000000 flat_xl=xxxxxx flat_yl=xxxxxx, path_x=xxxxxxxxxxxxxxxx, path_y=xxxxxxxxxxxxxxxx
t=10225000 state=01011 path_valid=0 saved=1 path_idx=  0 path_len=0000000 flat_x=ffffff flat_y=ffffff, path_lenl=0000000 flat_xl=xxxxxx flat_yl=xxxxxx, path_x=xxxxxxxxxxxxxxxx, path_y=xxxxxxxxxxxxxxxx
t=10245000 state=01000 path_valid=0 saved=1 path_idx=  0 path_len=0000000 flat_x=ffffff flat_y=ffffff, path_lenl=0000000 flat_xl=xxxxxx flat_yl=xxxxxx, path_x=xxxxxxxxxxxxxxxx, path_y=xxxxxxxxxxxxxxxx
t=10265000 state=01001 path_valid=0 saved=1 path_idx=  0 path_len=0000000 flat_x=ffffff flat_y=ffffff, path_lenl=0000000 flat_xl=xxxxxx flat_yl=xxxxxx, path_x=xxxxxxxxxxxxxxxx, path_y=xxxxxxxxxxxxxxxx
t=10285000 state=01010 path_valid=0 saved=1 path_idx=  0 path_len=0000000 flat_x=ffffff flat_y=ffffff, path_lenl=0000000 flat_xl=xxxxxx flat_yl=xxxxxx, path_x=xxxxxxxxxxxxxxxx, path_y=xxxxxxxxxxxxxxxx
t=10305000 state=01100 path_valid=0 saved=1 path_idx=  0 path_len=0000000 flat_x=ffffff flat_y=ffffff, path_lenl=0000000 flat_xl=xxxxxx flat_yl=xxxxxx, path_x=xxxxxxxxxxxxxxxx, path_y=xxxxxxxxxxxxxxxx
t=10325000 state=01101 path_valid=0 saved=1 path_idx=  0 path_len=0000000 flat_x=ffffff flat_y=ffffff, path_lenl=0000000 flat_xl=xxxxxx flat_yl=xxxxxx, path_x=xxxxxxxxxxxxxxxx, path_y=xxxxxxxxxxxxxxxx
t=10385000 state=01110 path_valid=0 saved=1 path_idx=  0 path_len=0000000 flat_x=ffffff flat_y=ffffff, path_lenl=0000000 flat_xl=xxxxxx flat_yl=xxxxxx, path_x=xxxxxxxxxxxxxxxx, path_y=xxxxxxxxxxxxxxxx
t=10405000 state=01111 path_valid=0 saved=1 path_idx=  0 path_len=0000000 flat_x=ffffff flat_y=ffffff, path_lenl=0000000 flat_xl=xxxxxx flat_yl=xxxxxx, path_x=xxxxxxxxxxxxxxxx, path_y=xxxxxxxxxxxxxxxx
t=10445000 state=10000 path_valid=0 saved=1 path_idx=  0 path_len=0000000 flat_x=ffffff flat_y=ffffff, path_lenl=0000000 flat_xl=xxxxxx flat_yl=xxxxxx, path_x=xxxxxxxxxxxxxxxx, path_y=xxxxxxxxxxxxxxxx
t=10465000 state=01011 path_valid=0 saved=1 path_idx=  0 path_len=0000000 flat_x=ffffff flat_y=ffffff, path_lenl=0000000 flat_xl=xxxxxx flat_yl=xxxxxx, path_x=xxxxxxxxxxxxxxxx, path_y=xxxxxxxxxxxxxxxx
t=10485000 state=01000 path_valid=0 saved=1 path_idx=  0 path_len=0000000 flat_x=ffffff flat_y=ffffff, path_lenl=0000000 flat_xl=xxxxxx flat_yl=xxxxxx, path_x=xxxxxxxxxxxxxxxx, path_y=xxxxxxxxxxxxxxxx
t=10505000 state=01001 path_valid=0 saved=1 path_idx=  0 path_len=0000000 flat_x=ffffff flat_y=ffffff, path_lenl=0000000 flat_xl=xxxxxx flat_yl=xxxxxx, path_x=xxxxxxxxxxxxxxxx, path_y=xxxxxxxxxxxxxxxx
t=10525000 state=01011 path_valid=0 saved=1 path_idx=  0 path_len=0000000 flat_x=ffffff flat_y=ffffff, path_lenl=0000000 flat_xl=xxxxxx flat_yl=xxxxxx, path_x=xxxxxxxxxxxxxxxx, path_y=xxxxxxxxxxxxxxxx
t=10545000 state=01000 path_valid=0 saved=1 path_idx=  0 path_len=0000000 flat_x=ffffff flat_y=ffffff, path_lenl=0000000 flat_xl=xxxxxx flat_yl=xxxxxx, path_x=xxxxxxxxxxxxxxxx, path_y=xxxxxxxxxxxxxxxx
t=10565000 state=01001 path_valid=0 saved=1 path_idx=  0 path_len=0000000 flat_x=ffffff flat_y=ffffff, path_lenl=0000000 flat_xl=xxxxxx flat_yl=xxxxxx, path_x=xxxxxxxxxxxxxxxx, path_y=xxxxxxxxxxxxxxxx
t=10585000 state=01010 path_valid=0 saved=1 path_idx=  0 path_len=0000000 flat_x=ffffff flat_y=ffffff, path_lenl=0000000 flat_xl=xxxxxx flat_yl=xxxxxx, path_x=xxxxxxxxxxxxxxxx, path_y=xxxxxxxxxxxxxxxx
t=10605000 state=10001 path_valid=0 saved=1 path_idx=  0 path_len=0000000 flat_x=ffffff flat_y=ffffff, path_lenl=0000000 flat_xl=xxxxxx flat_yl=xxxxxx, path_x=xxxxxxxxxxxxxxxx, path_y=xxxxxxxxxxxxxxxx
t=10625000 state=10010 path_valid=0 saved=1 path_idx=  0 path_len=0000000 flat_x=ffffff flat_y=ffffff, path_lenl=0000000 flat_xl=xxxxxx flat_yl=xxxxxx, path_x=xxxxxxxxxxxxxxxx, path_y=xxxxxxxxxxxxxxxx
t=10645000 state=10010 path_valid=0 saved=1 path_idx=  0 path_len=0000000 flat_x=fffff1 flat_y=fffff1, path_lenl=0000000 flat_xl=xxxxxx flat_yl=xxxxxx, path_x=xxxxxxxxxxxxxxxx, path_y=xxxxxxxxxxxxxxxx
t=10665000 state=10010 path_valid=0 saved=1 path_idx=  0 path_len=0000000 flat_x=ffff01 flat_y=ffff11, path_lenl=0000000 flat_xl=xxxxxx flat_yl=xxxxxx, path_x=xxxxxxxxxxxxxxxx, path_y=xxxxxxxxxxxxxxxx
t=10685000 state=10011 path_valid=0 saved=1 path_idx=  0 path_len=0000000 flat_x=fff001 flat_y=fff011, path_lenl=0000000 flat_xl=xxxxxx flat_yl=xxxxxx, path_x=xxxxxxxxxxxxxxxx, path_y=xxxxxxxxxxxxxxxx
t=10705000 state=10011 path_valid=1 saved=1 path_idx=  0 path_len=0000011 flat_x=fff001 flat_y=fff011, path_lenl=0000000 flat_xl=xxxxxx flat_yl=xxxxxx, path_x=xxxxxxxxxxxxxxxx, path_y=xxxxxxxxxxxxxxxx
t=10725000 state=10011 path_valid=0 saved=1 path_idx=  0 path_len=0000011 flat_x=fff001 flat_y=fff011, path_lenl=0000000 flat_xl=xxxxxx flat_yl=xxxxxx, path_x=xxxxxxxxxxxxxxxx, path_y=xxxxxxxxxxxxxxxx
t=10735000 state=10011 path_valid=0 saved=0 path_idx=  0 path_len=0000011 flat_x=fff001 flat_y=fff011, path_lenl=0000011 flat_xl=fff001 flat_yl=fff011, path_x=xxxxxxxxxxxxxxxx, path_y=xxxxxxxxxxxxxxxx
t=10745000 state=10011 path_valid=0 saved=0 path_idx=  1 path_len=0000011 flat_x=fff001 flat_y=fff011, path_lenl=0000011 flat_xl=fff001 flat_yl=fff011, path_x=1xxxxxxxxxxxxxxx, path_y=1xxxxxxxxxxxxxxx
t=10755000 state=10011 path_valid=0 saved=0 path_idx=  2 path_len=0000011 flat_x=fff001 flat_y=fff011, path_lenl=0000011 flat_xl=fff001 flat_yl=fff011, path_x=10xxxxxxxxxxxxxx, path_y=11xxxxxxxxxxxxxx
t=10765000 state=10011 path_valid=0 saved=0 path_idx=  3 path_len=0000011 flat_x=fff001 flat_y=fff011, path_lenl=0000011 flat_xl=fff001 flat_yl=fff011, path_x=100xxxxxxxxxxxxx, path_y=110xxxxxxxxxxxxx
t=10775000 state=10011 path_valid=0 saved=0 path_idx=  4 path_len=0000011 flat_x=fff001 flat_y=fff011, path_lenl=0000011 flat_xl=fff001 flat_yl=fff011, path_x=100fxxxxxxxxxxxx, path_y=110fxxxxxxxxxxxx
t=10785000 state=10011 path_valid=0 saved=0 path_idx=  5 path_len=0000011 flat_x=fff001 flat_y=fff011, path_lenl=0000011 flat_xl=fff001 flat_yl=fff011, path_x=100ffxxxxxxxxxxx, path_y=110ffxxxxxxxxxxx
t=10795000 state=10011 path_valid=0 saved=0 path_idx=  6 path_len=0000011 flat_x=fff001 flat_y=fff011, path_lenl=0000011 flat_xl=fff001 flat_yl=fff011, path_x=100fffxxxxxxxxxx, path_y=110fffxxxxxxxxxx
t=10805000 state=10011 path_valid=0 saved=0 path_idx=  7 path_len=0000011 flat_x=fff001 flat_y=fff011, path_lenl=0000011 flat_xl=fff001 flat_yl=fff011, path_x=100ffffxxxxxxxxx, path_y=110ffffxxxxxxxxx
t=10815000 state=10011 path_valid=0 saved=0 path_idx=  8 path_len=0000011 flat_x=fff001 flat_y=fff011, path_lenl=0000011 flat_xl=fff001 flat_yl=fff011, path_x=100fffffxxxxxxxx, path_y=110fffffxxxxxxxx
t=10825000 state=10011 path_valid=0 saved=0 path_idx=  9 path_len=0000011 flat_x=fff001 flat_y=fff011, path_lenl=0000011 flat_xl=fff001 flat_yl=fff011, path_x=100ffffffxxxxxxx, path_y=110ffffffxxxxxxx
t=10835000 state=10011 path_valid=0 saved=0 path_idx= 10 path_len=0000011 flat_x=fff001 flat_y=fff011, path_lenl=0000011 flat_xl=fff001 flat_yl=fff011, path_x=100fffffffxxxxxx, path_y=110fffffffxxxxxx
t=10845000 state=10011 path_valid=0 saved=0 path_idx= 11 path_len=0000011 flat_x=fff001 flat_y=fff011, path_lenl=0000011 flat_xl=fff001 flat_yl=fff011, path_x=100ffffffffxxxxx, path_y=110ffffffffxxxxx
t=10855000 state=10011 path_valid=0 saved=0 path_idx= 12 path_len=0000011 flat_x=fff001 flat_y=fff011, path_lenl=0000011 flat_xl=fff001 flat_yl=fff011, path_x=100fffffffffxxxx, path_y=110fffffffffxxxx
t=10865000 state=10011 path_valid=0 saved=0 path_idx= 13 path_len=0000011 flat_x=fff001 flat_y=fff011, path_lenl=0000011 flat_xl=fff001 flat_yl=fff011, path_x=100ffffffffffxxx, path_y=110ffffffffffxxx
t=10875000 state=10011 path_valid=0 saved=0 path_idx= 14 path_len=0000011 flat_x=fff001 flat_y=fff011, path_lenl=0000011 flat_xl=fff001 flat_yl=fff011, path_x=100fffffffffffxx, path_y=110fffffffffffxx
t=10885000 state=10011 path_valid=0 saved=0 path_idx= 15 path_len=0000011 flat_x=fff001 flat_y=fff011, path_lenl=0000011 flat_xl=fff001 flat_yl=fff011, path_x=100ffffffffffffx, path_y=110ffffffffffffx
t=10895000 state=10011 path_valid=0 saved=0 path_idx= 16 path_len=0000011 flat_x=fff001 flat_y=fff011, path_lenl=0000011 flat_xl=fff001 flat_yl=fff011, path_x=100fffffffffffff, path_y=110fffffffffffff
